{
    "data": {
        "pager": {
            "totalRows": 974,
            "pageRows": 5,
            "pageIndex": 1,
            "paged": false,
            "defaultPageRows": 20,
            "totalPages": 195,
            "currPageRows": 5,
            "pageStartRow": 0,
            "pageEndRow": 4,
            "hasPrevPage": false,
            "hasNextPage": true
        },
        "list": [
            {
                "productId": 9927,
                "devSubKeyId": null,
                "deviceSubtypeId": null,
                "deviceTypeId": null,
                "developerId": null,
                "productVersion": null,
                "productIcon": null,
                "moduleId": null,
                "bindType": 1,
                "bindTypeVersion": null,
                "productName": "固件test04",
                "productCode": null,
                "deviceKey": null,
                "mode": 0,
                "status": null,
                "brandId": null,
                "remark": null,
                "radiocastName": null,
                "createTime": "2019-09-29 10:14:54",
                "modifyTime": null,
                "qrcode": null,
                "deviceTypeName": null,
                "deviceSubTypeName": null,
                "bindTypeName": "Wi-Fi",
                "moduleName": null,
                "productIdHex": null,
                "isRela": null,
                "barCode": null,
                "ssid": null,
                "ssidPassword": null,
                "apModuleId": null,
                "accreditInfo": {
                    "accreditorId": null,
                    "receiverEmail": null,
                    "accreditStatus": null,
                    "productId": 9927,
                    "createTime": 1569694494000,
                    "receiverId": null,
                    "accreditId": null
                },
                "publishStatus": null,
                "moduleBrandId": null,
                "programBurningFile": null,
                "functionalSchematicDiagramFile": null,
                "billOfMaterialFile": null,
                "isAutoConfig": null,
                "portNumber": null,
                "gatewayType": null,
                "zoologyType": null,
                "manufacturerString": null,
                "zigbeeCommunicateIds": null,
                "zigbeeProductId": null,
                "thirdCategoryId": null,
                "allCategoryName": "健康生活-医疗检测-翻身检测",
                "accessModeId": null,
                "productClassId": 0,
                "productClassName": "普通设备",
                "netTypeId": null,
                "isRelatedGateway": null,
                "hardwareType": null,
                "gatewayCommType": null,
                "protocolFormat": null,
                "commFreq": null
            },
            {
                "productId": 9926,
                "devSubKeyId": null,
                "deviceSubtypeId": null,
                "deviceTypeId": null,
                "developerId": null,
                "productVersion": null,
                "productIcon": null,
                "moduleId": null,
                "bindType": 1,
                "bindTypeVersion": null,
                "productName": "固件test03",
                "productCode": null,
                "deviceKey": null,
                "mode": 2,
                "status": null,
                "brandId": null,
                "remark": null,
                "radiocastName": null,
                "createTime": "2019-09-29 09:20:30",
                "modifyTime": null,
                "qrcode": null,
                "deviceTypeName": null,
                "deviceSubTypeName": null,
                "bindTypeName": "Wi-Fi",
                "moduleName": null,
                "productIdHex": null,
                "isRela": null,
                "barCode": null,
                "ssid": null,
                "ssidPassword": null,
                "apModuleId": null,
                "accreditInfo": {
                    "accreditorId": null,
                    "receiverEmail": null,
                    "accreditStatus": null,
                    "productId": 9926,
                    "createTime": 1569691230000,
                    "receiverId": null,
                    "accreditId": null
                },
                "publishStatus": null,
                "moduleBrandId": null,
                "programBurningFile": null,
                "functionalSchematicDiagramFile": null,
                "billOfMaterialFile": null,
                "isAutoConfig": null,
                "portNumber": null,
                "gatewayType": null,
                "zoologyType": null,
                "manufacturerString": null,
                "zigbeeCommunicateIds": null,
                "zigbeeProductId": null,
                "thirdCategoryId": null,
                "allCategoryName": "健康生活-医疗检测-翻身检测",
                "accessModeId": null,
                "productClassId": 0,
                "productClassName": "普通设备",
                "netTypeId": null,
                "isRelatedGateway": null,
                "hardwareType": null,
                "gatewayCommType": null,
                "protocolFormat": null,
                "commFreq": null
            },
            {
                "productId": 9923,
                "devSubKeyId": null,
                "deviceSubtypeId": null,
                "deviceTypeId": null,
                "developerId": null,
                "productVersion": null,
                "productIcon": null,
                "moduleId": null,
                "bindType": 1,
                "bindTypeVersion": null,
                "productName": "信仰圣光吧",
                "productCode": null,
                "deviceKey": null,
                "mode": 2,
                "status": null,
                "brandId": null,
                "remark": null,
                "radiocastName": null,
                "createTime": "2019-09-27 14:20:02",
                "modifyTime": null,
                "qrcode": null,
                "deviceTypeName": null,
                "deviceSubTypeName": null,
                "bindTypeName": "Wi-Fi",
                "moduleName": null,
                "productIdHex": null,
                "isRela": null,
                "barCode": null,
                "ssid": null,
                "ssidPassword": null,
                "apModuleId": null,
                "accreditInfo": {
                    "accreditorId": null,
                    "receiverEmail": null,
                    "accreditStatus": null,
                    "productId": 9923,
                    "createTime": 1569536402000,
                    "receiverId": null,
                    "accreditId": null
                },
                "publishStatus": null,
                "moduleBrandId": null,
                "programBurningFile": null,
                "functionalSchematicDiagramFile": null,
                "billOfMaterialFile": null,
                "isAutoConfig": null,
                "portNumber": null,
                "gatewayType": null,
                "zoologyType": null,
                "manufacturerString": null,
                "zigbeeCommunicateIds": null,
                "zigbeeProductId": null,
                "thirdCategoryId": null,
                "allCategoryName": "智慧家居-厨房电器-电蒸箱",
                "accessModeId": null,
                "productClassId": 0,
                "productClassName": "普通设备",
                "netTypeId": null,
                "isRelatedGateway": null,
                "hardwareType": null,
                "gatewayCommType": null,
                "protocolFormat": null,
                "commFreq": null
            },
            {
                "productId": 9921,
                "devSubKeyId": null,
                "deviceSubtypeId": null,
                "deviceTypeId": null,
                "developerId": null,
                "productVersion": null,
                "productIcon": null,
                "moduleId": null,
                "bindType": 1,
                "bindTypeVersion": null,
                "productName": "复制产品测试",
                "productCode": null,
                "deviceKey": null,
                "mode": 0,
                "status": null,
                "brandId": null,
                "remark": null,
                "radiocastName": null,
                "createTime": "2019-09-26 18:00:00",
                "modifyTime": null,
                "qrcode": null,
                "deviceTypeName": null,
                "deviceSubTypeName": null,
                "bindTypeName": "Wi-Fi",
                "moduleName": null,
                "productIdHex": null,
                "isRela": null,
                "barCode": null,
                "ssid": null,
                "ssidPassword": null,
                "apModuleId": null,
                "accreditInfo": {
                    "accreditorId": null,
                    "receiverEmail": null,
                    "accreditStatus": null,
                    "productId": 9921,
                    "createTime": 1569463200000,
                    "receiverId": null,
                    "accreditId": null
                },
                "publishStatus": null,
                "moduleBrandId": null,
                "programBurningFile": null,
                "functionalSchematicDiagramFile": null,
                "billOfMaterialFile": null,
                "isAutoConfig": null,
                "portNumber": null,
                "gatewayType": null,
                "zoologyType": null,
                "manufacturerString": null,
                "zigbeeCommunicateIds": null,
                "zigbeeProductId": null,
                "thirdCategoryId": null,
                "allCategoryName": "",
                "accessModeId": null,
                "productClassId": 0,
                "productClassName": "普通设备",
                "netTypeId": null,
                "isRelatedGateway": null,
                "hardwareType": null,
                "gatewayCommType": null,
                "protocolFormat": null,
                "commFreq": null
            },
            {
                "productId": 9919,
                "devSubKeyId": null,
                "deviceSubtypeId": null,
                "deviceTypeId": null,
                "developerId": null,
                "productVersion": null,
                "productIcon": null,
                "moduleId": null,
                "bindType": 1,
                "bindTypeVersion": null,
                "productName": "12111",
                "productCode": null,
                "deviceKey": null,
                "mode": 0,
                "status": null,
                "brandId": null,
                "remark": null,
                "radiocastName": null,
                "createTime": "2019-09-26 17:27:30",
                "modifyTime": null,
                "qrcode": null,
                "deviceTypeName": null,
                "deviceSubTypeName": null,
                "bindTypeName": "Wi-Fi",
                "moduleName": null,
                "productIdHex": null,
                "isRela": null,
                "barCode": null,
                "ssid": null,
                "ssidPassword": null,
                "apModuleId": null,
                "accreditInfo": {
                    "accreditorId": null,
                    "receiverEmail": null,
                    "accreditStatus": null,
                    "productId": 9919,
                    "createTime": 1569461250000,
                    "receiverId": null,
                    "accreditId": null
                },
                "publishStatus": null,
                "moduleBrandId": null,
                "programBurningFile": null,
                "functionalSchematicDiagramFile": null,
                "billOfMaterialFile": null,
                "isAutoConfig": null,
                "portNumber": null,
                "gatewayType": null,
                "zoologyType": null,
                "manufacturerString": null,
                "zigbeeCommunicateIds": null,
                "zigbeeProductId": null,
                "thirdCategoryId": null,
                "allCategoryName": "智慧家居-厨房电器-电蒸箱",
                "accessModeId": null,
                "productClassId": 0,
                "productClassName": "普通设备",
                "netTypeId": null,
                "isRelatedGateway": null,
                "hardwareType": null,
                "gatewayCommType": null,
                "protocolFormat": null,
                "commFreq": null
            }
        ]
    },
    "code": 0
}